Effects of persistence and anonymity on political opinion expression - Data preparation
…
[1] 773

# also seems correct!

dat_merged_full_T1$case <- dat_merged_full_T1$CASE_T1
dat_full_T1 <- merge(x = dat_merged_full_T1, y = Discord_lists[, c("case", "roles")], by = "case")
# add the roles column from the discord lists. This contains information in which group the
# participants were. 

dat_full_T1 %>%
  group_by(roles) %>% 
  summarise(n = length(unique(case)))

# A tibble: 48 × 2
   roles        n
   <chr>    <int>
 1 Berlin1     20
 2 Berlin2     20
 3 Berlin3     20
 4 Berlin4     20
 5 Dubai1      20
 6 Dubai2      20
 7 Dubai3      20
 8 Dubai4      20
 9 Florenz1    20
10 Florenz2    20
# ℹ 38 more rows
…
